[
    {
        "email":"user1@gmail.com",
        "password" : "user123"
    },
    {
        "email":"user2@gmail.com",
        "password" : "user123"
    },
    {
        "email":"user3@gmail.com",
        "password" : "user123"
    }
]